API VOYAGE :
---------------------------------------------------------------------
API BOOKING -- https://developers.booking.com/api/index.html?version=2.4
API AIRFRA -- https://developer.airfranceklm.com
API TRIVAGO -- http://developer.trivago.com/expressbooking/implementation.html
API TRIPADVISOR -- https://developer-tripadvisor.com/content-api/
---------------------------------------------------------------------
---------------------------------------------------------------------
API UTIL : 
---------------------------------------------------------------------
API BAN(BANQUE ADRESSE) : https://adresse.data.gouv.fr/api
---------------------------------------------------------------------


