---------------------------------------------------------------------
REPO RESSOURCE :
---------------------------------------------------------------------
git clone https://Badsoul@bitbucket.org/calypsocmgb/ressources-calypso.git
---------------------------------------------------------------------
